…
You can get the data that you would like to have using ```get_data_from_bursa(data_name)``` 

```
> get_data_from_bursa("duraklar")
# A tibble: 7,286 × 6
    S_NO DURAK_NO DURAK_ADI           LATITUDE           LONGITUDE          ADRES                           
   <dbl> <chr>    <chr>               <chr>              <chr>              <chr>                           
 1     1 B59      T1-OSMANGAZİ        29.058965000000001 40.195878          AHMETPAŞA Kıbrıs Şehitleri Cd O…
 2     2 B60      T1-ÇARŞAMBA MERİNOS 29.053561999999999 40.194763000000002 ÇIRPAN DARMSTAD CD. OSMANGAZİ   
 3     3 B61      T1-STADYUM          29.049236000000001 40.193809999999999 GAZİAKDEMİR STADYUM CD. OSMANGA…
 4     4 B62      T1-ALTIPARMAK       29.049541000000001 40.190832          MURADİYE ALTIPARMAK CD. OSMANGA…
 5     5 B63      T1-ÇATALFIRIN       29.056739          40.188702999999997 KURUÇEŞME ALTIPARMAK CD. OSMANG…
 6     6 B64      T1-ULUCAMİ          29.061810999999999 40.183481          NALBANTOĞLU ATATÜRK CD. OSMANGA…
 7     7 B65      T1-HEYKEL           29.066233          40.182974999999999 HOCAALİZADE ATATÜRK CD. OSMANGA…
 8     8 B66      T1-DEMİRTAŞ         29.069842999999999 40.186321          EBUİSHAK İnönü Cd OSMANGAZİ     
 9     9 B67      T1-GAZCILAR         29.071270999999999 40.189020999999997 DEMİRTAŞPAŞA OSMAN GAZİ CD. OSM…
10    10 B68      T1-SGK              29.072793999999998 40.191709000000003 DEMİRTAŞPAŞA OSMAN GAZİ CD. OSM…
# ℹ 7,276 more rows
# ℹ Use `print(n = ...)` to see more rows
``` 
…
